{
  "type": "service_account",
  "project_id": "cosmic-shift-235317",
  "private_key_id": "f7f87604d3983f7dcb29e339e8f1c7feb2f3664f",
  "private_key": "-----BEGIN PRIVATE KEY-----\nMIIEvQIBADANBgkqhkiG9w0BAQEFAASCBKcwggSjAgEAAoIBAQDb+M9Q4zNsnvRg\nbXfJj89+6Rj1mqyddxOYC8mmLEa+/+xxSp9ZI7l9y/um7OxVos5p6KhMeGgDZtVw\nJd+GbVDCw41CkWzsjbIvaxSdaikXN558TVRwkIxlaO9S5shjeDkAvrXLqE5/5IGh\nIax0n7PorElksyfN8j575CtnRu+tu4xp+71uJZoBootqBXKht517FpGl7jaKqCue\n1lEL/EqY+RJU41OclVe2SNVqtjdfQvnYN1YIChrHAoEHLmxBsYYmykSMcceEIOqP\nhcYhMze+waT8wMnBZA9++IvAtbAU4E28s/KwL0tmWmy6aduZAVsVO83mFWuwvX2b\nv4jVvcm7AgMBAAECggEAP9TUCBNeBUuc+2xYoc9O9XNbsE2JgIogz/K/ua5Iez1V\nlcyDMAE7XuM168r9i54aSsZeLA6WlEIfdpMu6VnIYTQQxjvgAUbe6X6ntUQsl1Wm\n8kgYVC/F5dmM9SAODztAQ1ST+XymBtu+uAzG9/Kt6Lsx8vw/9TWx5w6ff7EodN+Y\n90RjAcige4Co7OdE5USWhxpgL7z7Kvvq1ECA9pnhOauMwkbs4fz00xvi5OpWCh4B\nFoZj1scxsGERa++eIq9aF4aYlRrJvhAmL9Iw67rKwkJe0kNeU+o6KClcco4SpuFN\nowAIovqHfWYgNmSH401bQCDFa0gWItfcJQxHAbYORQKBgQD/azQktODRtbW0/6yF\nCfTLT/np/HP1+pl734lKKgO7fsQ9MHmxZKaQigg+r+CELMPx5jwSmnkvvh0SPBk6\nqMPH4qxPgkYvi2gXTbDN0yxsU+tJLuqDmzLyAGkZXAWi39/2xt/gkp5hO3C4RFrM\nn1qdyFYplyqkZrP2v1+4bKxetQKBgQDcePTPMUftw6sIdPc42P6gH54HBudBl82d\n/wyO0fDOwN3p/Uc3vaqBQQpYs/CCPTsi4zps8nLfei0cLmt5Dyw7x9+hRjBtpQH4\nccF3z6fmQHB0obArrjQ12OtCEYRR36oDIfxg9UR5qL9Y9TRBRon1YVufZOmrRT67\nkdqIfmBcrwKBgQC7o/QwqzkmlwmgqNwC+Kd/3YdJ4I8IPEwZdsUTWP5Y9e4QzdX4\n/mpncSBRfT/BmmlxAqVLPXSeIFqXFNOsBmOeKuZPmvMY5p9Xz1l+PA88ngISR4c9\nm/y3UJnlaXcyiqmsT7oU72GvKM3McVsLTF5z38N81nMbR+AZ+8nEYQHYqQKBgFoR\n+EGlKnOSWo9L6awJyox0HkVUpql/cPs5NVIrpqtw07hCRxQYok3H2og+iuVKSpyI\nJFhZ/GAcM82tkS6V6kZJ86yZVjOVE+cB4j4mUbuZW9fqLmTJ+H5/Li2BpoMkUvqQ\nqeCakuz46aNYGY8JWFcs/RdzTJsx4N0USyk0J/31AoGABvgJvTl0PRh++mui7ZeE\nv6kr9QRnY4rbBS/dcm9m6bMNiD2xPUraS6mKlSnXvlcB0WjewU6m2XsbkXLCcd8u\nABbT7MH17O4NQYrEeDDqWGtpxPsQnqCRJ9H9YRffAD149adDPWyRBtOBq8f9CkSJ\ntqmB8DEmE1j+uZCE0du9QbE=\n-----END PRIVATE KEY-----\n",
  "client_email": "machine-learning-prd@cosmic-shift-235317.iam.gserviceaccount.com",
  "client_id": "100966877932016950106",
  "auth_uri": "https://accounts.google.com/o/oauth2/auth",
  "token_uri": "https://oauth2.googleapis.com/token",
  "auth_provider_x509_cert_url": "https://www.googleapis.com/oauth2/v1/certs",
  "client_x509_cert_url": "https://www.googleapis.com/robot/v1/metadata/x509/machine-learning-prd%40cosmic-shift-235317.iam.gserviceaccount.com"
}